@relation anaphora-classification

@attribute anaphora string
@attribute isalone {true,false}
@attribute drel {k2,k7t,k7,rh,sent-adv,vmod,rt,k1s,r6,r6-k2,k7a,adv,k4,k7p,k4a,k5,rd,nmod__emph,k2p,ccof,jjmod,ras-k2,others}
@attribute next_word string
@attribute class {event, entity}

@data
इसकी,true,r6,null,entity
इसके,false,rh,कारण,event
इसके,false,k7t,बाद,event
इस,false,k7,पर,event
यह,true,k2,null,event
इस,false,k7,पर,event
यह,true,k2,null,event
इसको,true,k2,null,entity
इसके,true,r6,null,entity
इस,false,k7,बारे,event
इनमें,true,k7,null,entity
इस,false,k7,बारे,event
इसको,true,r6,null,entity
इसके,false,k7a,तहत,entity
इसके,false,rt,लिए,event
इसके,false,rt,लिए,entity
इस,false,k7,पर,event
इसके,false,rt,लिए,entity
यह,true,others,null,event
इसके,false,vmod,अलावा,entity
इससे,true,rh,null,entity
इसी,false,vmod,के,event
इसके,false,vmod,चलते,event
इसके,true,r6,null,entity
इसका,true,r6,null,entity
इसकी,true,r6-k2,null,event
इसे,true,k2,null,entity
इन्हें,true,k2,null,entity
यह,true,others,null,entity
इसकी,true,r6-k2,null,event
इसे,true,k2,null,entity
इसके,false,k7a,तहत,entity
इसके,false,others,ज़रिए,entity
इसी,false,k7a,के,event
इसके,false,sent-adv,साथ,event
इसे,true,k2,null,entity
इसके,false,k7a,तहत,entity
इनमें,true,k7,null,entity
इसका,true,r6,null,entity
इसका,true,r6-k2,null,entity
इसमें,true,k7,null,entity
इसके,false,vmod,अलावा,entity
इस,false,k7,पर,entity
इनमें,true,k7,null,entity
इसका,true,r6,null,entity
इस,false,k7,बारे,event
इससे,true,rh,null,event
इन,false,k7,पर,entity
इनकी,true,r6,null,entity
इनके,true,r6,null,entity
इनकी,true,r6,null,entity
इन,false,k7p,पर,entity
इन्हें,true,k2,null,entity
इन्हें,true,k4,null,entity
यह,true,others,null,entity
इनमें,false,k5,से,entity
इनमें,true,k7,null,entity
यह,true,others,null,entity
इसके,false,k7t,बाद,event
ये,true,others,null,entity
इसमें,true,k7,null,entity
इन्हें,true,k2,null,entity
ये,true,others,null,entity
इनसे,true,k5,null,entity
इनका,true,r6-k2,null,entity
इनके,true,r6,null,entity
इसके,false,rt,लिए,event
इसमें,true,k7,null,event
इसके,false,k7,पीछे,event
यह,true,others,null,event
इसकी,true,r6,null,entity
इसका,true,r6-k2,null,entity
इसे,true,k2,null,entity
यह,true,others,null,entity
इससे,false,k7t,पहले,event
इसके,false,k7t,बाद,event
इस,true,others,null,entity
इसके,false,k7t,बाद,event
इससे,false,k7t,पहले,event
इसकी,true,r6,null,event
इसका,true,r6-k2,null,event
इस,false,k7,बारे,event
इसके,false,rh,चलते,entity
इसके,false,vmod,अलावा,event
इसके,false,vmod,अलावा,event
इसके,false,k7t,बाद,event
इसका,true,r6,null,entity
इसके,false,vmod,अलावा,event
इसके,false,sent-adv,साथ,event
इसके,false,adv,साथ,event
यह,true,others,null,event
इसमें,true,k7,null,entity
इससे,true,others,null,entity
इसके,false,vmod,अलावा,event
इस,false,k7,पर,entity
इससे,false,k7t,पहले,event
इनकी,true,r6,null,entity
इसमें,true,k7,null,entity
यह,true,others,null,entity
इसका,true,r6-k2,null,event
इसकी,true,r6,null,entity
इसकी,false,rt,ओर,entity
इसमें,true,k7,null,event
इसी,false,rh,से,entity
यह,true,others,null,entity
इसे,true,k4,null,entity
इसके,false,sent-adv,साथ,entity
इस,false,k7,बारे,entity
इस,false,k7,पर,entity
इस,false,k7,बारे,event
इसमें,true,k7,null,event
इस,false,k7,पर,entity
इसमें,true,k7,null,event
इसे,true,k2,null,entity
यही,true,others,null,event
यह,true,others,null,event
इसे,true,k2,null,entity
इसे,true,k2,null,entity
यह,true,others,null,entity
इसकी,true,r6-k2,null,entity
इससे,true,rh,null,entity
यह,true,others,null,event
इसमें,true,k7,null,event
इसके,false,rt,लिए,event
यह,true,others,null,entity
इसका,true,others,null,event
इसका,true,others,null,event
यह,true,others,null,event
यह,true,others,null,entity
इससे,false,k7t,पहले,event
इसके,false,k7t,बाद,entity
यह,true,others,null,event
इसके,false,vmod,अलावा,entity
इनमें,true,k7,null,entity
इन्हें,true,k2,null,entity
इसे,true,k2,null,entity
इसके,false,rt,लिए,entity
इसे,true,k2,null,entity
इसकी,true,r6,null,entity
इससे,false,k7,बाहर,entity
इसकी,true,r6,null,entity
इससे,true,rh,null,entity
इनमें,true,k7,null,entity
इससे,true,rh,null,entity
इस,false,k7,बारे,event
इससे,true,others,null,entity
इसके,false,rt,लिए,event
इन्हें,true,k2,null,entity
इससे,true,rh,null,event
ये,true,others,null,entity
इन्होंने,true,others,null,entity
इनका,true,others,null,entity
इनकी,true,r6,null,entity
इनकी,true,r6,null,entity
इसे,true,others,null,entity
इसे,true,k4,null,event
यह,false,others,भी,event
यह,true,others,null,event
इसका,true,others,null,entity
इसके,true,r6,null,event
इनके,true,r6,null,entity
इन्हें,true,k2,null,entity
इसे,true,k2,null,entity
इनमें,true,k7,null,entity
इसमें,true,k7,null,entity
इससे,false,k7t,पहले,entity
इसका,true,others,null,entity
इनमें,false,k5,से,entity
इनमें,false,k5,से,entity
इसके,false,rt,लिए,event
इसके,false,vmod,अलावा,event
इसका,true,r6,null,entity
इसका,true,r6-k2,null,entity
इस,false,k7,पर,entity
इससे,false,ccof,संबंधित,entity
इसमें,true,k7,null,entity
इसके,false,rt,लिए,entity
इसके,true,r6,null,entity
यह,true,others,null,entity
इससे,true,rh,null,event
इस,false,k7,बारे,event
इस,false,k7,पर,event
इससे,true,rh,null,entity
यह,true,others,null,event
यह,true,others,null,event
इसके,false,k7a,बावजूद,event
इनमें,false,k5,से,entity
इससे,false,k7t,पहले,event
इसके,false,rt,लिए,event
यह,false,others,तो,entity
इसी,false,r6-k2,का,entity
यह,true,others,null,event
इनके,true,r6,null,entity
इनमें,false,k7,से,entity
इससे,true,k2,null,entity
इनमें,true,k7,null,entity
यह,true,others,null,event
इसके,true,r6,null,entity
इनकी,true,r6,null,entity
इसमें,true,k7,null,entity
इसे,true,k2,null,entity
इसके,false,rt,लिए,event
इसके,false,sent-adv,साथ,event
इसका,true,r6,null,entity
इनके,false,k7,बारे,entity
यह,true,others,null,event
यह,true,others,null,event
इसके,false,sent-adv,साथ,event
इनसे,true,k5,null,entity
इस,false,k7,बारे,event
इसकी,true,r6-k2,null,event
यह,true,others,null,event
इसकी,true,r6,null,event
यह,true,others,null,event
इसके,false,sent-adv,साथ,event
इसी,false,r6,का,entity
इसी,false,rh,के,entity
इसके,false,vmod,बावजूद,event
इसके,false,sent-adv,साथ,event
इसके,false,sent-adv,साथ,event
इसमें,true,k7,null,event
इसके,false,sent-adv,साथ,event
इसमें,true,k7,null,entity
इसे,true,k2,null,event
इसके,true,r6,null,entity
इसके,true,r6,null,entity
इसकी,true,r6,null,event
इसके,false,vmod,विपरीत,event
इससे,false,k7t,पहले,event
इसके,true,r6,null,event
इसके,false,k7t,बाद,event
इसके,false,k7t,बाद,event
इसके,false,sent-adv,साथ,event
इसे,true,others,null,entity
इसके,false,sent-adv,साथ,event
इसके,false,rt,लिए,event
इसके,false,rt,लिए,event
इसके,false,rt,लिए,entity
इसे,true,k2,null,entity
यह,true,k2,null,event
इसके,false,k7t,बाद,entity
इसे,true,k2,null,event
इसके,false,k7t,बाद,event
इसे,true,k2,null,entity
इनकी,true,r6,null,entity
इससे,true,rh,null,event
इसका,true,r6,null,entity
इसके,true,r6,null,event
इसे,true,k2,null,entity
इसकी,true,r6,null,entity
इसमें,true,k7,null,entity
इससे,true,rh,null,event
इसकी,true,r6,null,event
इसका,true,r6,null,event
इसे,true,k2,null,entity
इसके,false,k7a,मद्देनजर,event
इसके,false,rt,लिए,entity
इस,false,k7,पर,entity
इसे,true,k2,null,event
इसका,true,r6-k2,null,entity
इसका,true,r6-k2,null,entity
यह,true,others,null,entity
इसके,false,k7a,तहत,event
यह,true,others,null,entity
इस,false,k7,बारे,event
इसके,false,k7a,बावजूद,event
यह,true,others,null,event
इसके,false,rt,लिए,event
यह,true,others,null,event
इसमें,true,k7,null,entity
इससे,true,others,null,event
इसका,true,r6,null,event
इसके,false,rt,लिए,event
इनमें,true,k7,null,entity
इनमें,false,others,से,entity
यह,true,others,null,entity
इससे,true,rh,null,entity
इसके,false,k7a,मुताबिक,entity
इसकी,true,r6-k2,null,entity
इससे,true,others,null,entity
इसमें,true,k7,null,entity
इसके,false,k7t,बाद,event
इनमें,false,k5,से,entity
इसके,false,k7t,बाद,entity
इसके,false,sent-adv,साथ,event
इसे,true,k4,null,entity
इसको,true,k2,null,event
इसका,true,r6,null,entity
इसमें,true,k7,null,entity
इसके,false,vmod,अलावा,entity
इसके,false,vmod,अलावा,entity
इस,false,k7,बारे,event
इनमें,true,k7,null,entity
इसमें,true,k7,null,entity
इसे,true,k2,null,entity
इसकी,true,r6-k2,null,event
इस,false,k7,पर,entity
इनकी,true,r6,null,entity
इसी,false,k7a,के,event
यह,true,k2,null,event
इसका,true,r6-k2,null,entity
इसके,false,vmod,बावजूद,event
इसे,true,k2,null,entity
यह,true,others,null,entity
इसे,true,k2,null,entity
इसमें,true,k7,null,entity
इसके,false,k7a,अलावा,event
इसके,false,k7a,तहत,entity
इसके,false,k7a,मद्देनजर,entity
इसके,false,others,बजाय,event
इसके,true,r6,null,entity
इसकी,true,r6-k2,null,entity
इनमें,true,k7,null,entity
इससे,true,others,null,entity
इनमें,false,k5,से,entity
इसके,false,k7t,बाद,event
इस,false,k7,पर,entity
इसके,false,k7t,बाद,event
इससे,true,others,null,event
इस,false,k7,बारे,event
इसके,false,vmod,अलावा,event
इससे,false,others,भी,event
इससे,true,rh,null,event
इससे,true,rh,null,event
इससे,true,rh,null,event
इसमें,true,k7,null,event
इनमें,false,others,से,entity
इसके,false,rt,लिए,entity
इसके,false,rt,लिए,event
इससे,true,rh,null,entity
इसके,true,r6,null,entity
इसके,false,rt,लिए,event
इसके,true,r6,null,entity
यह,true,others,null,event
इसे,true,k2,null,entity
इससे,true,rh,null,event
इससे,true,rh,null,event
इसके,true,r6,null,entity
इसके,false,k7t,बाद,event
इन्होंने,true,others,null,entity
इसके,false,sent-adv,साथ,event
इसके,false,k7t,बाद,event
इस,false,k7,बारे,event
इसके,false,others,साथ,event
इसकी,true,r6,null,entity
इसके,false,sent-adv,साथ,event
इसके,false,sent-adv,अलावा,event
यह,true,others,null,entity
इसके,false,vmod,अलावा,entity
इसके,false,vmod,अलावा,event
इसके,false,vmod,अलावा,event
इनके,true,r6,null,entity
इस,false,k7,बारे,event
इस,false,k7,बारे,event
इससे,true,rh,null,event
इसकी,true,r6,null,event
इसका,true,r6-k2,null,entity
इसके,false,k7a,बावजूद,event
इसमें,true,k7,null,event
इसके,false,k7t,बाद,entity
इसके,false,rt,इसके,event
इसके,false,rt,इसके,event
इस,false,k7,पर,event
इसमें,true,k7,null,entity
इसके,false,sent-adv,साथ,event
इसके,false,rt,लिए,event
इस,false,k7,बाबत,event
इसके,false,vmod,अलावा,entity
यह,false,k2,भी,event
यह,true,others,null,entity
इससे,true,others,null,entity
इस,false,k2,पर,entity
इसके,false,sent-adv,साथ,event
इसके,true,r6,null,entity
इसका,true,r6,null,entity
इसके,true,r6,null,entity
यह,true,others,null,entity
यह,true,others,null,entity
इसकी,true,others,null,entity
इसके,false,vmod,आगे,event
यह,true,others,null,entity
इससे,true,rh,null,entity
इससे,true,rh,null,event
यह,true,k2,null,entity
इसके,false,sent-adv,साथ,event
इसके,false,vmod,अलावा,event
इससे,true,rh,null,entity
इसकी,true,r6,null,entity
ये,true,k1s,null,event
ये,true,k1s,null,event
इसमें,true,k7,null,entity
इसके,false,rt,लिए,entity
इसमें,true,k7,null,entity
इसके,true,others,null,entity
इसके,false,k7t,बाद,entity
इसमें,true,k7,null,entity
इसके,true,r6,null,entity
इससे,true,rh,null,event
इसके,false,k7t,बाद,event
यह,true,k2,null,event
यह,true,k2,null,event
इसकी,true,r6,null,entity
इसके,false,k7t,बाद,event
इसके,false,k7t,बाद,event
इसके,false,k7t,बाद,event
इसके,false,vmod,बावजूद,event
इसके,false,vmod,अलावा,entity
इसका,true,others,null,entity
यही,true,others,null,event
इससे,true,rh,null,entity
यह,true,others,null,entity
इससे,true,rh,null,entity
यह,true,others,null,entity
सब,true,others,null,event
इसके,false,vmod,बावजूद,event
इसका,true,r6,null,event
इसके,false,sent-adv,चलते,event
इसकी,true,r6,null,entity
इसमें,true,k7,null,entity
इससे,false,k7t,पहले,event
इसके,false,vmod,अलावा,event
इसके,false,rt,लिए,event
इसके,false,vmod,अलावा,event
इसे,true,k2,null,event
इसका,true,r6,null,entity
ये,true,others,null,entity
यह,true,others,null,entity
इसके,false,vmod,अलावा,event
इससे,false,sent-adv,पूर्व,event
इसके,false,rt,लिए,event
इसका,true,r6,null,event
इसकी,true,r6,null,event
इससे,false,k7t,पहले,event
यह,true,others,null,event
इसके,false,sent-adv,साथ,event
इसकी,true,r6,null,event
इसका,true,r6,null,event
यह,true,others,null,entity
इसके,true,r6,null,event
इसे,true,k2,null,entity
इसकी,true,r6-k2,null,entity
इसी,false,k7a,के,entity
इससे,true,k2,null,entity
इसके,false,rt,लिए,entity
इसके,false,k7a,अनुसार,event
इसके,false,k7a,अनुसार,entity
यह,true,others,null,event
इसे,true,k2,null,entity
इसके,false,k7t,बाद,entity
इसके,false,k7t,बाद,event
इससे,false,k7t,पहले,event
इसके,false,k7t,पहले,event
इसके,false,k7t,बाद,event
इसकी,true,r6,null,entity
इसके,false,k7t,बाद,event
इसे,true,k2,null,entity
इस,true,r6-k2,null,event
इसकी,true,r6-k2,null,entity
इसके,false,sent-adv,साथ,event
इसके,false,sent-adv,साथ,event
इस,false,k7,पर,event
इसके,false,sent-adv,अलावा,event
इससे,false,k7t,पहले,event
इसमें,true,k7,null,entity
इसके,false,rt,लिए,event
इसका,true,r6,null,entity
इसका,true,others,null,entity
इससे,true,rh,null,event
इसकी,true,r6-k2,null,event
इस,false,k7,बारे,event
इसकी,true,r6,null,entity
इसके,false,vmod,चलते,event
इसे,true,k2,null,entity
इसमें,true,k7,null,entity
इसमें,true,k7,null,entity
इसकी,true,r6,null,event
इसमें,true,k7,null,event
इसका,true,r6,null,entity
इसी,false,k2,से,entity
ये,true,others,null,entity
इन्हें,true,others,null,entity
इन्हें,true,k2,null,entity
