@relation anaphora-classification

@attribute anaphora string
@attribute isalone {true,false}
@attribute drel {k2,k7t,k7,rh,sent-adv,vmod,rt,k1s,r6,r6-k2,k7a,adv,k4,k7p,k4a,k5,rd,nmod__emph,k2p,ccof,jjmod,ras-k2,others}
@attribute next_word string
@attribute class {event, entity}

@data
